<?xml version="1.0" encoding="UTF-8" standalone="no"?>
<!-- Created with Inkscape (http://www.inkscape.org/) -->

<svg
   xmlns:osb="http://www.openswatchbook.org/uri/2009/osb"
   xmlns:dc="http://purl.org/dc/elements/1.1/"
   xmlns:cc="http://creativecommons.org/ns#"
   xmlns:rdf="http://www.w3.org/1999/02/22-rdf-syntax-ns#"
   xmlns:svg="http://www.w3.org/2000/svg"
   xmlns="http://www.w3.org/2000/svg"
   xmlns:xlink="http://www.w3.org/1999/xlink"
   xmlns:sodipodi="http://sodipodi.sourceforge.net/DTD/sodipodi-0.dtd"
   xmlns:inkscape="http://www.inkscape.org/namespaces/inkscape"
   width="760"
   height="160"
   viewBox="0 0 201.08334 42.333332"
   version="1.1"
   id="svg8"
   inkscape:version="0.92.3 (2405546, 2018-03-11)"
   sodipodi:docname="xiv_search.svg">
  <defs
     id="defs2">
    <linearGradient
       inkscape:collect="always"
       id="linearGradient949-7">
      <stop
         style="stop-color:#9d8962;stop-opacity:1;"
         offset="0"
         id="stop945" />
      <stop
         style="stop-color:#fbdf8b;stop-opacity:1"
         offset="1"
         id="stop947" />
    </linearGradient>
    <linearGradient
       id="linearGradient928"
       osb:paint="solid">
      <stop
         style="stop-color:#000000;stop-opacity:1;"
         offset="0"
         id="stop926" />
    </linearGradient>
    <linearGradient
       inkscape:collect="always"
       xlink:href="#linearGradient949-7"
       id="linearGradient951"
       x1="12.169623"
       y1="275.83334"
       x2="97.488205"
       y2="275.83334"
       gradientUnits="userSpaceOnUse"
       spreadMethod="reflect" />
    <linearGradient
       inkscape:collect="always"
       xlink:href="#linearGradient949-7"
       id="linearGradient1990"
       x1="12.169623"
       y1="275.83334"
       x2="98.357544"
       y2="275.83334"
       gradientUnits="userSpaceOnUse"
       spreadMethod="reflect" />
  </defs>
  <sodipodi:namedview
     id="base"
     pagecolor="#ffffff"
     bordercolor="#666666"
     borderopacity="1.0"
     inkscape:pageopacity="0.0"
     inkscape:pageshadow="2"
     inkscape:zoom="1.4142136"
     inkscape:cx="300.38063"
     inkscape:cy="-68.72277"
     inkscape:document-units="px"
     inkscape:current-layer="layer1"
     showgrid="false"
     units="px"
     inkscape:window-width="2560"
     inkscape:window-height="1387"
     inkscape:window-x="1912"
     inkscape:window-y="-8"
     inkscape:window-maximized="1"
     inkscape:pagecheckerboard="false"
     inkscape:object-nodes="false"
     inkscape:snap-nodes="true"
     inkscape:snap-others="true"
     inkscape:snap-global="true" />
  <metadata
     id="metadata5">
    <rdf:RDF>
      <cc:Work
         rdf:about="">
        <dc:format>image/svg+xml</dc:format>
        <dc:type
           rdf:resource="http://purl.org/dc/dcmitype/StillImage" />
        <dc:title />
      </cc:Work>
    </rdf:RDF>
  </metadata>
  <g
     inkscape:groupmode="layer"
     id="layer2"
     inkscape:label="Layer 2">
    <g
       style="fill:#000000;fill-opacity:1;stroke:none;stroke-width:1;stroke-miterlimit:4;stroke-dasharray:none;stroke-opacity:1"
       transform="translate(0.91224071,-254.66623)"
       id="g995-4">
      <g
         id="g977-9"
         style="font-style:normal;font-variant:normal;font-weight:normal;font-stretch:normal;font-size:10.58333302px;line-height:1.25;font-family:Cinzel;-inkscape-font-specification:Cinzel;letter-spacing:0px;word-spacing:0px;fill:#000000;fill-opacity:1;stroke:none;stroke-width:1;stroke-miterlimit:4;stroke-dasharray:none;stroke-opacity:1"
         aria-label="XIV">
        <path
           inkscape:connector-curvature="0"
           id="path971-3"
           style="font-weight:bold;font-size:29.63333321px;fill:#000000;fill-opacity:1;stroke:none;stroke-width:1;stroke-miterlimit:4;stroke-dasharray:none;stroke-opacity:1"
           d="m 25.56389,285.61233 q 0.6223,0 1.007533,-0.59267 0.1778,-0.32597 0.1778,-0.6223 0,-0.29633 -0.1778,-0.59267 l -4.148667,-6.46006 -4.3561,6.43043 q -0.1778,0.29633 -0.1778,0.6223 0,0.29633 0.1778,0.59267 0.414867,0.6223 1.037167,0.6223 h 0.385233 v 0.29633 h -7.319433 v -0.29633 h 0.414867 q 1.659466,0 2.9337,-1.65947 l 5.837766,-8.2677 -5.482166,-8.47513 q -0.503767,-0.74084 -1.303867,-1.2446 -0.8001,-0.50377 -1.6891,-0.50377 h -0.414867 v -0.29633 H 22.54129 v 0.29633 h -0.385234 q -0.6223,0 -1.007533,0.59267 -0.1778,0.32596 -0.1778,0.65193 0,0.29633 0.148167,0.56303 l 3.704166,5.71924 3.6449,-5.6896 q 0.1778,-0.29634 0.1778,-0.59267 0,-0.32597 -0.207433,-0.6223 -0.385233,-0.6223 -1.007533,-0.6223 h -0.385234 v -0.29633 h 7.2898 v 0.29633 H 33.92049 q -0.889,0 -1.659467,0.50377 -0.770467,0.47413 -1.303867,1.21496 l -5.037666,7.49724 5.9563,9.21596 q 0.503766,0.74084 1.303866,1.2446 0.829734,0.47414 1.6891,0.47414 h 0.414867 v 0.29633 H 25.178656 v -0.29633 z" />
        <path
           inkscape:connector-curvature="0"
           id="path973-9"
           style="font-weight:bold;font-size:29.63333321px;fill:#000000;fill-opacity:1;stroke:none;stroke-width:1;stroke-miterlimit:4;stroke-dasharray:none;stroke-opacity:1"
           d="m 36.069369,285.61233 q 0.770467,0 1.303867,-0.5334 0.563033,-0.56304 0.592667,-1.3335 v -16.4465 q -0.02963,-0.77047 -0.592667,-1.30387 -0.5334,-0.5334 -1.303867,-0.5334 h -0.385233 v -0.29633 h 9.008533 l -0.02963,0.29633 h -0.3556 q -0.770467,0 -1.3335,0.5334 -0.563033,0.5334 -0.563033,1.30387 v 16.4465 q 0,0.77046 0.563033,1.3335 0.563033,0.5334 1.3335,0.5334 h 0.3556 l 0.02963,0.29633 h -9.008533 v -0.29633 z" />
        <path
           inkscape:connector-curvature="0"
           id="path975-0"
           style="font-weight:bold;font-size:29.63333321px;fill:#000000;fill-opacity:1;stroke:none;stroke-width:1;stroke-miterlimit:4;stroke-dasharray:none;stroke-opacity:1"
           d="m 61.990201,265.16533 h 6.341533 v 0.29633 h -0.2667 c -0.454378,0 -0.908756,0.13829 -1.363134,0.41487 -0.454377,0.27657 -0.829733,0.69144 -1.126066,1.2446 l -7.0231,15.49823 c -0.908755,1.9558 -0.816057,3.24979 -0.875324,3.88197 h -0.843409 l -8.9789,-19.35057 c -0.296333,-0.55315 -0.671689,-0.96802 -1.126067,-1.2446 -0.454378,-0.29633 -0.918634,-0.4445 -1.392767,-0.4445 h -0.237066 v -0.29633 h 9.4234 v 0.29633 h -0.237067 c -0.434622,0 -0.760589,0.13829 -0.9779,0.41487 -0.197555,0.25682 -0.296333,0.50376 -0.296333,0.74083 0,0.23707 0.03951,0.47413 0.118533,0.7112 l 5.037667,12.23857 5.215466,-12.23857 c 0.09878,-0.25682 0.148167,-0.49389 0.148167,-0.7112 0,-0.23707 -0.108656,-0.48401 -0.325967,-0.74083 -0.197555,-0.27658 -0.513644,-0.41487 -0.948266,-0.41487 h -0.2667 z"
           sodipodi:nodetypes="cccscccccccsccccscscccscscc" />
      </g>
      <g
         id="g991-3"
         style="font-style:normal;font-variant:normal;font-weight:normal;font-stretch:normal;font-size:10.58333302px;line-height:1.25;font-family:Cinzel;-inkscape-font-specification:Cinzel;letter-spacing:0px;word-spacing:0px;fill:#000000;fill-opacity:1;stroke:none;stroke-width:1;stroke-miterlimit:4;stroke-dasharray:none;stroke-opacity:1"
         aria-label="Search">
        <path
           inkscape:connector-curvature="0"
           id="path979-3"
           style="font-size:29.63333321px;fill:#000000;fill-opacity:1;stroke:none;stroke-width:1;stroke-miterlimit:4;stroke-dasharray:none;stroke-opacity:1"
           d="m 78.915807,284.99212 c -0.05927,-0.27658 -0.0889,-0.80998 -0.0889,-1.6002 0,-0.79022 0.148166,-1.62983 0.4445,-2.51883 l 0.841341,-0.002 c -1.073455,1.11287 -0.344376,2.72279 0.492162,3.6766 0.730955,0.79022 1.697944,1.18326 2.903033,1.18326 1.2446,0 2.262011,-0.37535 3.052233,-1.12606 0.809978,-0.75071 1.214967,-1.6891 1.214967,-2.81517 0,-1.14582 -0.385233,-2.07433 -1.1557,-2.78553 l -5.6896,-5.27474 c -1.0668,-0.98777 -1.6002,-2.18298 -1.6002,-3.58563 0,-1.40265 0.464255,-2.59786 1.392766,-3.58563 0.948267,-1.00753 2.2225,-1.5113 3.8227,-1.5113 0.750711,0 1.6002,0.0988 2.548467,0.29633 h 1.1557 l 0.574849,3.64404 -0.841549,8.6e-4 c 0,-0.92851 -0.325967,-1.66935 -0.9779,-2.2225 -0.632178,-0.55315 -1.452034,-0.82973 -2.459567,-0.82973 -1.007533,0 -1.857022,0.33584 -2.548466,1.00753 -0.671689,0.67169 -1.007534,1.5113 -1.007534,2.51883 0,1.00753 0.395111,1.87678 1.185334,2.60774 l 5.837766,5.39326 c 0.987778,0.90876 1.481667,2.15336 1.481667,3.7338 0,1.58045 -0.503767,2.88431 -1.5113,3.9116 -1.007533,1.00753 -2.350911,1.5113 -4.030133,1.5113 -0.869245,0 -1.797756,-0.13829 -2.785534,-0.41486 -0.968022,-0.25683 -1.717699,-0.65975 -2.251099,-1.2129 z"
           sodipodi:nodetypes="cscccscsccscscccccscsccscsccc" />
        <path
           inkscape:connector-curvature="0"
           id="path981-1"
           style="font-size:29.63333321px;fill:#000000;fill-opacity:1;stroke:none;stroke-width:1;stroke-miterlimit:4;stroke-dasharray:none;stroke-opacity:1"
           d="m 93.216097,285.90868 c 0.474133,0 0.869245,-0.14817 1.185334,-0.4445 0.335844,-0.31609 0.513644,-0.69144 0.5334,-1.12606 v -14.07584 c 0,-0.43462 -0.167922,-0.8001 -0.503767,-1.09643 -0.335845,-0.29633 -0.740834,-0.4445 -1.214967,-0.4445 h -0.414866 v -0.29633 h 8.652929 c 0.80998,0 1.52118,-0.0593 2.1336,-0.1778 0.61243,-0.11853 1.58488,-0.21817 1.76268,-0.2972 l -0.002,3.37803 -0.901,-0.0286 v -0.4445 c 0,-0.41487 -0.13829,-0.77047 -0.41487,-1.0668 -0.27657,-0.29633 -0.63217,-0.4445 -1.0668,-0.4445 h -6.163729 v 7.52687 h 5.067299 c 0.39511,0 0.69145,-0.11853 0.889,-0.3556 0.21731,-0.23707 0.32597,-0.5334 0.32597,-0.889 v -0.38524 h 0.32596 v 4.14867 H 103.084 v -0.38523 c 0,-0.55316 -0.20743,-0.92852 -0.6223,-1.12607 -0.15805,-0.0593 -0.32597,-0.0988 -0.50377,-0.11853 h -5.156199 v 7.52686 h 4.652429 c 0.90876,0 1.66935,-0.15804 2.28177,-0.47413 0.63218,-0.31609 1.10631,-0.69144 1.4224,-1.12607 0.33585,-0.43462 0.67169,-1.00753 1.00753,-1.71873 h 0.29634 l -1.62984,4.23757 H 92.801231 v -0.29634 z"
           sodipodi:nodetypes="cccsssccsccccscsccscsccccsccccscccccccc" />
        <path
           inkscape:connector-curvature="0"
           id="path983-0"
           style="font-size:29.63333321px;fill:#000000;fill-opacity:1;stroke:none;stroke-width:1;stroke-miterlimit:4;stroke-dasharray:none;stroke-opacity:1"
           d="m 126.93512,285.90868 h 0.23707 v 0.29634 h -6.07483 v -0.29634 h 0.23706 c 0.37536,0 0.66182,-0.12841 0.85937,-0.38523 0.19755,-0.25682 0.29633,-0.49389 0.29633,-0.7112 0,-0.23707 -0.0395,-0.46426 -0.11853,-0.68157 l -1.62983,-3.94123 h -7.49724 l -1.62983,3.85233 c -0.0988,0.25683 -0.14817,0.50377 -0.14817,0.74084 0,0.21731 0.0988,0.46425 0.29634,0.74083 0.19755,0.25682 0.49389,0.38523 0.889,0.38523 h 0.23706 v 0.29634 h -5.65996 v -0.29634 h 0.23706 c 0.41487,0 0.82973,-0.13829 1.2446,-0.41486 0.43463,-0.29633 0.79023,-0.73096 1.0668,-1.30387 4.32647,-9.2456 6.5786,-14.08571 6.7564,-14.52033 0.33585,-0.82973 0.51365,-1.38289 0.5334,-1.65947 h 0.58503 l 7.00111,16.1798 c 0.57291,1.14582 1.33349,1.71873 2.28176,1.71873 z m -13.30536,-6.60823 h 6.7564 l -3.31894,-8.11953 z"
           sodipodi:nodetypes="sccccsssccccscsccccsccccccscccc" />
        <path
           inkscape:connector-curvature="0"
           id="path985-9"
           style="font-size:29.63333321px;fill:#000000;fill-opacity:1;stroke:none;stroke-width:1;stroke-miterlimit:4;stroke-dasharray:none;stroke-opacity:1"
           d="m 134.1689,269.34365 h -1.57057 v 14.96483 q 0.0296,0.91864 0.82974,1.39277 0.38523,0.20743 0.85936,0.20743 h 0.38524 l 0.0296,0.29634 h -6.07483 v -0.29634 h 0.41486 q 0.68157,0 1.1557,-0.4445 0.50377,-0.47413 0.50377,-1.12606 v -14.07584 q 0,-0.65193 -0.50377,-1.09643 -0.47413,-0.4445 -1.1557,-0.4445 h -0.41486 v -0.29633 h 7.43796 q 2.78554,0 4.38574,1.27423 1.62983,1.27423 1.62983,3.34857 0,2.07433 -1.30387,3.4671 -1.30386,1.39276 -3.31893,1.6002 0.94827,0.41486 2.28177,2.3114 -0.0296,0 1.00753,1.30386 1.0668,1.30387 1.6891,2.0447 0.65193,0.7112 1.0668,1.09644 1.09643,1.03716 2.51883,1.03716 v 0.29634 h -0.91863 q -2.34103,0 -3.67453,-0.91864 -1.00754,-0.68156 -1.83727,-1.6891 -0.1778,-0.23706 -1.5113,-2.07433 -1.30387,-1.8669 -1.39277,-1.98543 -1.6002,-1.98544 -2.99296,-1.98544 v -0.29633 q 3.4671,0 4.1783,-0.3556 0.9779,-0.50377 1.3335,-1.0668 0.74083,-1.18533 0.74083,-2.60773 0,-1.80764 -1.0668,-2.78554 -1.0668,-0.9779 -2.87443,-1.0668 -0.8001,-0.0296 -1.83727,-0.0296 z" />
        <path
           inkscape:connector-curvature="0"
           id="path987-5"
           style="font-size:29.63333321px;fill:#000000;fill-opacity:1;stroke:none;stroke-width:1;stroke-miterlimit:4;stroke-dasharray:none;stroke-opacity:1"
           d="m 155.79521,286.61988 c -3.0226,-0.0197 -5.41302,-0.85934 -7.17126,-2.51883 -1.73849,-1.65947 -2.60774,-3.92148 -2.60774,-6.78603 0,-2.88431 0.86925,-5.1562 2.60774,-6.81567 1.75824,-1.65947 4.14866,-2.4892 7.17126,-2.4892 1.22485,0 2.45957,0.15804 3.70417,0.47413 1.2446,0.31609 2.32128,0.75072 3.23003,1.30387 l 1.2249,4.20793 h -0.83966 c -0.84949,-3.39795 -3.29918,-5.09693 -7.34907,-5.09693 -2.35091,0 -4.20794,0.75071 -5.57107,2.25213 -1.36313,1.50143 -2.0447,3.55601 -2.0447,6.16374 0,1.69897 0.30621,3.18064 0.91864,4.445 0.61242,1.2446 1.50142,2.21262 2.667,2.90406 1.16557,0.69145 2.51883,1.03717 4.05976,1.03717 1.54093,0 2.88431,-0.22719 4.03014,-0.68157 1.16557,-0.47413 2.12372,-1.2446 2.87443,-2.3114 0.77047,-1.0668 1.20509,-2.39042 1.30387,-3.97086 h 0.84397 l -0.90324,4.05976 c -0.77047,1.18533 -1.88666,2.12372 -3.34857,2.81517 -1.46191,0.67169 -3.06211,1.00753 -4.8006,1.00753 z"
           sodipodi:nodetypes="ccscsccccscsccsccccccc" />
        <path
           inkscape:connector-curvature="0"
           id="path989-0"
           style="font-size:29.63333321px;fill:#000000;fill-opacity:1;stroke:none;stroke-width:1;stroke-miterlimit:4;stroke-dasharray:none;stroke-opacity:1"
           d="m 180.24503,285.90868 q 0.68156,0 1.18533,-0.4445 0.50377,-0.47413 0.5334,-1.12606 v -6.46007 h -10.9347 v 6.46007 q 0.0296,0.65193 0.5334,1.12606 0.50377,0.4445 1.18533,0.4445 h 0.3556 v 0.29634 h -6.0452 v -0.29634 h 0.3556 q 0.7112,0 1.18534,-0.47413 0.50376,-0.47413 0.5334,-1.12607 v -13.98693 q -0.0296,-0.65193 -0.5334,-1.12607 -0.50377,-0.47413 -1.18534,-0.47413 h -0.3556 v -0.29633 h 6.0452 v 0.29633 h -0.3556 q -0.68156,0 -1.18533,0.47413 -0.50377,0.4445 -0.5334,1.09644 v 6.69713 h 10.9347 v -6.6675 q 0,-0.65193 -0.38523,-1.00753 -0.6223,-0.59267 -1.3335,-0.59267 h -0.3556 v -0.29633 h 6.0452 v 0.29633 h -0.3556 q -0.68157,0 -1.18534,0.4445 -0.50376,0.4445 -0.5334,1.09643 v 14.07584 q 0.0296,0.65193 0.38524,0.9779 0.65193,0.59266 1.3335,0.59266 h 0.3556 v 0.29634 h -6.0452 v -0.29634 z" />
      </g>
      <path
         inkscape:connector-curvature="0"
         id="path993-1"
         d="m 72.633865,257.5015 h 1.889881 v 36.66368 h -1.889881 z"
         style="fill:#000000;fill-opacity:1;stroke:none;stroke-width:1;stroke-miterlimit:4;stroke-dasharray:none;stroke-opacity:1" />
    </g>
  </g>
  <g
     inkscape:label="Layer 1"
     inkscape:groupmode="layer"
     id="layer1"
     transform="translate(0,-254.66667)"
     style="display:inline">
    <g
       id="g3729"
       transform="translate(1.489542)"
       style="fill:url(#linearGradient951);fill-opacity:1;stroke:none;stroke-width:1;stroke-miterlimit:4;stroke-dasharray:none;stroke-opacity:1">
      <g
         aria-label="XIV"
         style="font-style:normal;font-variant:normal;font-weight:normal;font-stretch:normal;font-size:10.58333302px;line-height:1.25;font-family:Cinzel;-inkscape-font-specification:Cinzel;letter-spacing:0px;word-spacing:0px;fill:url(#linearGradient951);fill-opacity:1;stroke:none;stroke-width:1;stroke-miterlimit:4;stroke-dasharray:none;stroke-opacity:1"
         id="text12">
        <path
           d="m 25.56389,285.61233 q 0.6223,0 1.007533,-0.59267 0.1778,-0.32597 0.1778,-0.6223 0,-0.29633 -0.1778,-0.59267 l -4.148667,-6.46006 -4.3561,6.43043 q -0.1778,0.29633 -0.1778,0.6223 0,0.29633 0.1778,0.59267 0.414867,0.6223 1.037167,0.6223 h 0.385233 v 0.29633 h -7.319433 v -0.29633 h 0.414867 q 1.659466,0 2.9337,-1.65947 l 5.837766,-8.2677 -5.482166,-8.47513 q -0.503767,-0.74084 -1.303867,-1.2446 -0.8001,-0.50377 -1.6891,-0.50377 h -0.414867 v -0.29633 H 22.54129 v 0.29633 h -0.385234 q -0.6223,0 -1.007533,0.59267 -0.1778,0.32596 -0.1778,0.65193 0,0.29633 0.148167,0.56303 l 3.704166,5.71924 3.6449,-5.6896 q 0.1778,-0.29634 0.1778,-0.59267 0,-0.32597 -0.207433,-0.6223 -0.385233,-0.6223 -1.007533,-0.6223 h -0.385234 v -0.29633 h 7.2898 v 0.29633 H 33.92049 q -0.889,0 -1.659467,0.50377 -0.770467,0.47413 -1.303867,1.21496 l -5.037666,7.49724 5.9563,9.21596 q 0.503766,0.74084 1.303866,1.2446 0.829734,0.47414 1.6891,0.47414 h 0.414867 v 0.29633 H 25.178656 v -0.29633 z"
           style="font-weight:bold;font-size:29.63333321px;fill:url(#linearGradient951);fill-opacity:1;stroke:none;stroke-width:1;stroke-miterlimit:4;stroke-dasharray:none;stroke-opacity:1"
           id="path21"
           inkscape:connector-curvature="0" />
        <path
           d="m 36.069369,285.61233 q 0.770467,0 1.303867,-0.5334 0.563033,-0.56304 0.592667,-1.3335 v -16.4465 q -0.02963,-0.77047 -0.592667,-1.30387 -0.5334,-0.5334 -1.303867,-0.5334 h -0.385233 v -0.29633 h 9.008533 l -0.02963,0.29633 h -0.3556 q -0.770467,0 -1.3335,0.5334 -0.563033,0.5334 -0.563033,1.30387 v 16.4465 q 0,0.77046 0.563033,1.3335 0.563033,0.5334 1.3335,0.5334 h 0.3556 l 0.02963,0.29633 h -9.008533 v -0.29633 z"
           style="font-weight:bold;font-size:29.63333321px;fill:url(#linearGradient951);fill-opacity:1;stroke:none;stroke-width:1;stroke-miterlimit:4;stroke-dasharray:none;stroke-opacity:1"
           id="path23"
           inkscape:connector-curvature="0" />
        <path
           d="m 61.990201,265.16533 h 6.341533 v 0.29633 h -0.2667 q -0.681567,0 -1.363134,0.41487 -0.681566,0.41486 -1.126066,1.2446 l -7.0231,15.49823 q -1.363133,2.9337 -1.452033,3.88197 h -0.2667 l -8.9789,-19.35057 q -0.4445,-0.82973 -1.126067,-1.2446 -0.681567,-0.4445 -1.392767,-0.4445 h -0.237066 v -0.29633 h 9.4234 v 0.29633 h -0.237067 q -0.651933,0 -0.9779,0.41487 -0.296333,0.38523 -0.296333,0.74083 0,0.3556 0.118533,0.7112 l 5.037667,12.23857 5.215466,-12.23857 q 0.148167,-0.38523 0.148167,-0.7112 0,-0.3556 -0.325967,-0.74083 -0.296333,-0.41487 -0.948266,-0.41487 h -0.2667 z"
           style="font-weight:bold;font-size:29.63333321px;fill:url(#linearGradient951);fill-opacity:1;stroke:none;stroke-width:1;stroke-miterlimit:4;stroke-dasharray:none;stroke-opacity:1"
           id="path25"
           inkscape:connector-curvature="0" />
      </g>
      <g
         aria-label="Search"
         style="font-style:normal;font-variant:normal;font-weight:normal;font-stretch:normal;font-size:10.58333302px;line-height:1.25;font-family:Cinzel;-inkscape-font-specification:Cinzel;letter-spacing:0px;word-spacing:0px;fill:url(#linearGradient951);fill-opacity:1;stroke:none;stroke-width:1;stroke-miterlimit:4;stroke-dasharray:none;stroke-opacity:1"
         id="text16">
        <path
           d="m 78.914773,284.99005 q -0.0889,-0.41487 -0.0889,-1.6002 0,-1.18533 0.4445,-2.51883 h 0.2667 q -0.02963,0.32596 -0.02963,0.65193 0,1.80763 1.096433,3.0226 1.096433,1.18533 2.904067,1.18533 1.8669,0 3.052233,-1.12606 1.214967,-1.12607 1.214967,-2.81517 0,-1.71873 -1.1557,-2.78553 l -5.6896,-5.27474 q -1.6002,-1.48166 -1.6002,-3.58563 0,-2.10397 1.392766,-3.58563 1.4224,-1.5113 3.8227,-1.5113 1.126067,0 2.548467,0.29633 h 1.1557 v 3.6449 h -0.2667 q 0,-1.39277 -0.9779,-2.2225 -0.948267,-0.82973 -2.459567,-0.82973 -1.5113,0 -2.548466,1.00753 -1.007534,1.00753 -1.007534,2.51883 0,1.5113 1.185334,2.60774 l 5.837766,5.39326 q 1.481667,1.36314 1.481667,3.7338 0,2.37067 -1.5113,3.9116 -1.5113,1.5113 -4.030133,1.5113 -1.303867,0 -2.785534,-0.41486 -1.452033,-0.38524 -2.252133,-1.21497 z"
           style="font-size:29.63333321px;fill:url(#linearGradient951);fill-opacity:1;stroke:none;stroke-width:1;stroke-miterlimit:4;stroke-dasharray:none;stroke-opacity:1"
           id="path28"
           inkscape:connector-curvature="0" />
        <path
           d="m 93.216097,285.90868 q 0.7112,0 1.185334,-0.4445 0.503766,-0.47413 0.5334,-1.12606 v -14.07584 q 0,-0.65193 -0.503767,-1.09643 -0.503767,-0.4445 -1.214967,-0.4445 h -0.414866 v -0.29633 h 8.652929 q 1.21497,0 2.1336,-0.1778 0.91864,-0.1778 1.18534,-0.29634 v 3.3782 l -0.32597,-0.0296 v -0.4445 q 0,-0.6223 -0.41487,-1.0668 -0.41486,-0.4445 -1.0668,-0.4445 h -6.163729 v 7.52687 h 5.067299 q 0.59267,0 0.889,-0.3556 0.32597,-0.3556 0.32597,-0.889 v -0.38524 h 0.32596 v 4.14867 H 103.084 v -0.38523 q 0,-0.82974 -0.6223,-1.12607 -0.23707,-0.0889 -0.50377,-0.11853 h -5.156199 v 7.52686 h 4.652429 q 1.36314,0 2.28177,-0.47413 0.94827,-0.47413 1.4224,-1.12607 0.50377,-0.65193 1.00753,-1.71873 h 0.29634 l -1.62984,4.23757 H 92.801231 v -0.29634 z"
           style="font-size:29.63333321px;fill:url(#linearGradient951);fill-opacity:1;stroke:none;stroke-width:1;stroke-miterlimit:4;stroke-dasharray:none;stroke-opacity:1"
           id="path30"
           inkscape:connector-curvature="0" />
        <path
           d="m 126.93512,285.90868 h 0.23707 v 0.29634 h -6.07483 v -0.29634 h 0.23706 q 0.56304,0 0.85937,-0.38523 0.29633,-0.38523 0.29633,-0.7112 0,-0.3556 -0.11853,-0.68157 l -1.62983,-3.94123 h -7.49724 l -1.62983,3.85233 q -0.14817,0.38524 -0.14817,0.74084 0,0.32596 0.29634,0.74083 0.29633,0.38523 0.889,0.38523 h 0.23706 v 0.29634 h -5.65996 v -0.29634 h 0.23706 q 0.6223,0 1.2446,-0.41486 0.65194,-0.4445 1.0668,-1.30387 6.4897,-13.8684 6.7564,-14.52033 0.50377,-1.2446 0.5334,-1.65947 h 0.2667 l 7.31944,16.1798 q 0.85936,1.71873 2.28176,1.71873 z m -13.30536,-6.60823 h 6.7564 l -3.31894,-8.11953 z"
           style="font-size:29.63333321px;fill:url(#linearGradient951);fill-opacity:1;stroke:none;stroke-width:1;stroke-miterlimit:4;stroke-dasharray:none;stroke-opacity:1"
           id="path32"
           inkscape:connector-curvature="0" />
        <path
           d="m 134.1689,269.34365 h -1.57057 v 14.96483 q 0.0296,0.91864 0.82974,1.39277 0.38523,0.20743 0.85936,0.20743 h 0.38524 l 0.0296,0.29634 h -6.07483 v -0.29634 h 0.41486 q 0.68157,0 1.1557,-0.4445 0.50377,-0.47413 0.50377,-1.12606 v -14.07584 q 0,-0.65193 -0.50377,-1.09643 -0.47413,-0.4445 -1.1557,-0.4445 h -0.41486 v -0.29633 h 7.43796 q 2.78554,0 4.38574,1.27423 1.62983,1.27423 1.62983,3.34857 0,2.07433 -1.30387,3.4671 -1.30386,1.39276 -3.31893,1.6002 0.94827,0.41486 2.28177,2.3114 -0.0296,0 1.00753,1.30386 1.0668,1.30387 1.6891,2.0447 0.65193,0.7112 1.0668,1.09644 1.09643,1.03716 2.51883,1.03716 v 0.29634 h -0.91863 q -2.34103,0 -3.67453,-0.91864 -1.00754,-0.68156 -1.83727,-1.6891 -0.1778,-0.23706 -1.5113,-2.07433 -1.30387,-1.8669 -1.39277,-1.98543 -1.6002,-1.98544 -2.99296,-1.98544 v -0.29633 q 3.4671,0 4.1783,-0.3556 0.9779,-0.50377 1.3335,-1.0668 0.74083,-1.18533 0.74083,-2.60773 0,-1.80764 -1.0668,-2.78554 -1.0668,-0.9779 -2.87443,-1.0668 -0.8001,-0.0296 -1.83727,-0.0296 z"
           style="font-size:29.63333321px;fill:url(#linearGradient951);fill-opacity:1;stroke:none;stroke-width:1;stroke-miterlimit:4;stroke-dasharray:none;stroke-opacity:1"
           id="path34"
           inkscape:connector-curvature="0" />
        <path
           d="m 155.79521,286.61988 q -4.5339,-0.0296 -7.17126,-2.51883 -2.60774,-2.4892 -2.60774,-6.78603 0,-4.32647 2.60774,-6.81567 2.63736,-2.4892 7.17126,-2.4892 1.83727,0 3.70417,0.47413 1.8669,0.47414 3.23003,1.30387 l 0.65194,4.20793 h -0.2667 q -1.27424,-5.09693 -7.34907,-5.09693 -3.52637,0 -5.57107,2.25213 -2.0447,2.25214 -2.0447,6.16374 0,2.54846 0.91864,4.445 0.91863,1.8669 2.667,2.90406 1.74836,1.03717 4.05976,1.03717 2.3114,0 4.03014,-0.68157 1.74836,-0.7112 2.87443,-2.3114 1.1557,-1.6002 1.30387,-3.97086 h 0.2667 l -0.32597,4.05976 q -1.1557,1.778 -3.34857,2.81517 -2.19286,1.00753 -4.8006,1.00753 z"
           style="font-size:29.63333321px;fill:url(#linearGradient951);fill-opacity:1;stroke:none;stroke-width:1;stroke-miterlimit:4;stroke-dasharray:none;stroke-opacity:1"
           id="path36"
           inkscape:connector-curvature="0" />
        <path
           d="m 180.24503,285.90868 q 0.68156,0 1.18533,-0.4445 0.50377,-0.47413 0.5334,-1.12606 v -6.46007 h -10.9347 v 6.46007 q 0.0296,0.65193 0.5334,1.12606 0.50377,0.4445 1.18533,0.4445 h 0.3556 v 0.29634 h -6.0452 v -0.29634 h 0.3556 q 0.7112,0 1.18534,-0.47413 0.50376,-0.47413 0.5334,-1.12607 v -13.98693 q -0.0296,-0.65193 -0.5334,-1.12607 -0.50377,-0.47413 -1.18534,-0.47413 h -0.3556 v -0.29633 h 6.0452 v 0.29633 h -0.3556 q -0.68156,0 -1.18533,0.47413 -0.50377,0.4445 -0.5334,1.09644 v 6.69713 h 10.9347 v -6.6675 q 0,-0.65193 -0.38523,-1.00753 -0.6223,-0.59267 -1.3335,-0.59267 h -0.3556 v -0.29633 h 6.0452 v 0.29633 h -0.3556 q -0.68157,0 -1.18534,0.4445 -0.50376,0.4445 -0.5334,1.09643 v 14.07584 q 0.0296,0.65193 0.38524,0.9779 0.65193,0.59266 1.3335,0.59266 h 0.3556 v 0.29634 h -6.0452 v -0.29634 z"
           style="font-size:29.63333321px;fill:url(#linearGradient951);fill-opacity:1;stroke:none;stroke-width:1;stroke-miterlimit:4;stroke-dasharray:none;stroke-opacity:1"
           id="path38"
           inkscape:connector-curvature="0" />
      </g>
      <path
         style="fill:url(#linearGradient951);fill-opacity:1;stroke:none;stroke-width:1;stroke-miterlimit:4;stroke-dasharray:none;stroke-opacity:1"
         d="m 72.633865,257.5015 h 1.889881 v 36.66368 h -1.889881 z"
         id="rect3722"
         inkscape:connector-curvature="0" />
    </g>
    <g
       style="fill:url(#linearGradient1990);fill-opacity:1;stroke:none;stroke-width:1;stroke-miterlimit:4;stroke-dasharray:none;stroke-opacity:1"
       transform="translate(1.489542)"
       id="g995">
      <g
         id="g977"
         style="font-style:normal;font-variant:normal;font-weight:normal;font-stretch:normal;font-size:10.58333302px;line-height:1.25;font-family:Cinzel;-inkscape-font-specification:Cinzel;letter-spacing:0px;word-spacing:0px;fill:url(#linearGradient1990);fill-opacity:1.0;stroke:none;stroke-width:1;stroke-miterlimit:4;stroke-dasharray:none;stroke-opacity:1"
         aria-label="XIV">
        <path
           id="path971"
           style="font-weight:bold;font-size:29.63333321px;fill:url(#linearGradient1990);fill-opacity:1.0;stroke:none;stroke-width:1;stroke-miterlimit:4;stroke-dasharray:none;stroke-opacity:1"
           d="m 25.56389,285.61233 q 0.6223,0 1.007533,-0.59267 0.1778,-0.32597 0.1778,-0.6223 0,-0.29633 -0.1778,-0.59267 l -4.148667,-6.46006 -4.3561,6.43043 q -0.1778,0.29633 -0.1778,0.6223 0,0.29633 0.1778,0.59267 0.414867,0.6223 1.037167,0.6223 h 0.385233 v 0.29633 h -7.319433 v -0.29633 h 0.414867 q 1.659466,0 2.9337,-1.65947 l 5.837766,-8.2677 -5.482166,-8.47513 q -0.503767,-0.74084 -1.303867,-1.2446 -0.8001,-0.50377 -1.6891,-0.50377 h -0.414867 v -0.29633 H 22.54129 v 0.29633 h -0.385234 q -0.6223,0 -1.007533,0.59267 -0.1778,0.32596 -0.1778,0.65193 0,0.29633 0.148167,0.56303 l 3.704166,5.71924 3.6449,-5.6896 q 0.1778,-0.29634 0.1778,-0.59267 0,-0.32597 -0.207433,-0.6223 -0.385233,-0.6223 -1.007533,-0.6223 h -0.385234 v -0.29633 h 7.2898 v 0.29633 H 33.92049 q -0.889,0 -1.659467,0.50377 -0.770467,0.47413 -1.303867,1.21496 l -5.037666,7.49724 5.9563,9.21596 q 0.503766,0.74084 1.303866,1.2446 0.829734,0.47414 1.6891,0.47414 h 0.414867 v 0.29633 H 25.178656 v -0.29633 z"
           inkscape:connector-curvature="0" />
        <path
           id="path973"
           style="font-weight:bold;font-size:29.63333321px;fill:url(#linearGradient1990);fill-opacity:1.0;stroke:none;stroke-width:1;stroke-miterlimit:4;stroke-dasharray:none;stroke-opacity:1"
           d="m 36.069369,285.61233 q 0.770467,0 1.303867,-0.5334 0.563033,-0.56304 0.592667,-1.3335 v -16.4465 q -0.02963,-0.77047 -0.592667,-1.30387 -0.5334,-0.5334 -1.303867,-0.5334 h -0.385233 v -0.29633 h 9.008533 l -0.02963,0.29633 h -0.3556 q -0.770467,0 -1.3335,0.5334 -0.563033,0.5334 -0.563033,1.30387 v 16.4465 q 0,0.77046 0.563033,1.3335 0.563033,0.5334 1.3335,0.5334 h 0.3556 l 0.02963,0.29633 h -9.008533 v -0.29633 z"
           inkscape:connector-curvature="0" />
        <path
           id="path975"
           style="font-weight:bold;font-size:29.63333321px;fill:url(#linearGradient1990);fill-opacity:1.0;stroke:none;stroke-width:1;stroke-miterlimit:4;stroke-dasharray:none;stroke-opacity:1"
           d="m 61.990201,265.16533 h 6.341533 v 0.29633 h -0.2667 q -0.681567,0 -1.363134,0.41487 -0.681566,0.41486 -1.126066,1.2446 l -7.0231,15.49823 q -1.363133,2.9337 -1.452033,3.88197 h -0.2667 l -8.9789,-19.35057 q -0.4445,-0.82973 -1.126067,-1.2446 -0.681567,-0.4445 -1.392767,-0.4445 h -0.237066 v -0.29633 h 9.4234 v 0.29633 h -0.237067 q -0.651933,0 -0.9779,0.41487 -0.296333,0.38523 -0.296333,0.74083 0,0.3556 0.118533,0.7112 l 5.037667,12.23857 5.215466,-12.23857 q 0.148167,-0.38523 0.148167,-0.7112 0,-0.3556 -0.325967,-0.74083 -0.296333,-0.41487 -0.948266,-0.41487 h -0.2667 z"
           inkscape:connector-curvature="0" />
      </g>
      <g
         id="g991"
         style="font-style:normal;font-variant:normal;font-weight:normal;font-stretch:normal;font-size:10.58333302px;line-height:1.25;font-family:Cinzel;-inkscape-font-specification:Cinzel;letter-spacing:0px;word-spacing:0px;fill:url(#linearGradient1990);fill-opacity:1.0;stroke:none;stroke-width:1;stroke-miterlimit:4;stroke-dasharray:none;stroke-opacity:1"
         aria-label="Search">
        <path
           id="path979"
           style="font-size:29.63333321px;fill:url(#linearGradient1990);fill-opacity:1.0;stroke:none;stroke-width:1;stroke-miterlimit:4;stroke-dasharray:none;stroke-opacity:1"
           d="m 78.914773,284.99005 q -0.0889,-0.41487 -0.0889,-1.6002 0,-1.18533 0.4445,-2.51883 h 0.2667 q -0.02963,0.32596 -0.02963,0.65193 0,1.80763 1.096433,3.0226 1.096433,1.18533 2.904067,1.18533 1.8669,0 3.052233,-1.12606 1.214967,-1.12607 1.214967,-2.81517 0,-1.71873 -1.1557,-2.78553 l -5.6896,-5.27474 q -1.6002,-1.48166 -1.6002,-3.58563 0,-2.10397 1.392766,-3.58563 1.4224,-1.5113 3.8227,-1.5113 1.126067,0 2.548467,0.29633 h 1.1557 v 3.6449 h -0.2667 q 0,-1.39277 -0.9779,-2.2225 -0.948267,-0.82973 -2.459567,-0.82973 -1.5113,0 -2.548466,1.00753 -1.007534,1.00753 -1.007534,2.51883 0,1.5113 1.185334,2.60774 l 5.837766,5.39326 q 1.481667,1.36314 1.481667,3.7338 0,2.37067 -1.5113,3.9116 -1.5113,1.5113 -4.030133,1.5113 -1.303867,0 -2.785534,-0.41486 -1.452033,-0.38524 -2.252133,-1.21497 z"
           inkscape:connector-curvature="0" />
        <path
           id="path981"
           style="font-size:29.63333321px;fill:url(#linearGradient1990);fill-opacity:1.0;stroke:none;stroke-width:1;stroke-miterlimit:4;stroke-dasharray:none;stroke-opacity:1"
           d="m 93.216097,285.90868 q 0.7112,0 1.185334,-0.4445 0.503766,-0.47413 0.5334,-1.12606 v -14.07584 q 0,-0.65193 -0.503767,-1.09643 -0.503767,-0.4445 -1.214967,-0.4445 h -0.414866 v -0.29633 h 8.652929 q 1.21497,0 2.1336,-0.1778 0.91864,-0.1778 1.18534,-0.29634 v 3.3782 l -0.32597,-0.0296 v -0.4445 q 0,-0.6223 -0.41487,-1.0668 -0.41486,-0.4445 -1.0668,-0.4445 h -6.163729 v 7.52687 h 5.067299 q 0.59267,0 0.889,-0.3556 0.32597,-0.3556 0.32597,-0.889 v -0.38524 h 0.32596 v 4.14867 H 103.084 v -0.38523 q 0,-0.82974 -0.6223,-1.12607 -0.23707,-0.0889 -0.50377,-0.11853 h -5.156199 v 7.52686 h 4.652429 q 1.36314,0 2.28177,-0.47413 0.94827,-0.47413 1.4224,-1.12607 0.50377,-0.65193 1.00753,-1.71873 h 0.29634 l -1.62984,4.23757 H 92.801231 v -0.29634 z"
           inkscape:connector-curvature="0" />
        <path
           id="path983"
           style="font-size:29.63333321px;fill:url(#linearGradient1990);fill-opacity:1.0;stroke:none;stroke-width:1;stroke-miterlimit:4;stroke-dasharray:none;stroke-opacity:1"
           d="m 126.93512,285.90868 h 0.23707 v 0.29634 h -6.07483 v -0.29634 h 0.23706 q 0.56304,0 0.85937,-0.38523 0.29633,-0.38523 0.29633,-0.7112 0,-0.3556 -0.11853,-0.68157 l -1.62983,-3.94123 h -7.49724 l -1.62983,3.85233 q -0.14817,0.38524 -0.14817,0.74084 0,0.32596 0.29634,0.74083 0.29633,0.38523 0.889,0.38523 h 0.23706 v 0.29634 h -5.65996 v -0.29634 h 0.23706 q 0.6223,0 1.2446,-0.41486 0.65194,-0.4445 1.0668,-1.30387 6.4897,-13.8684 6.7564,-14.52033 0.50377,-1.2446 0.5334,-1.65947 h 0.2667 l 7.31944,16.1798 q 0.85936,1.71873 2.28176,1.71873 z m -13.30536,-6.60823 h 6.7564 l -3.31894,-8.11953 z"
           inkscape:connector-curvature="0" />
        <path
           id="path985"
           style="font-size:29.63333321px;fill:url(#linearGradient1990);fill-opacity:1.0;stroke:none;stroke-width:1;stroke-miterlimit:4;stroke-dasharray:none;stroke-opacity:1"
           d="m 134.1689,269.34365 h -1.57057 v 14.96483 q 0.0296,0.91864 0.82974,1.39277 0.38523,0.20743 0.85936,0.20743 h 0.38524 l 0.0296,0.29634 h -6.07483 v -0.29634 h 0.41486 q 0.68157,0 1.1557,-0.4445 0.50377,-0.47413 0.50377,-1.12606 v -14.07584 q 0,-0.65193 -0.50377,-1.09643 -0.47413,-0.4445 -1.1557,-0.4445 h -0.41486 v -0.29633 h 7.43796 q 2.78554,0 4.38574,1.27423 1.62983,1.27423 1.62983,3.34857 0,2.07433 -1.30387,3.4671 -1.30386,1.39276 -3.31893,1.6002 0.94827,0.41486 2.28177,2.3114 -0.0296,0 1.00753,1.30386 1.0668,1.30387 1.6891,2.0447 0.65193,0.7112 1.0668,1.09644 1.09643,1.03716 2.51883,1.03716 v 0.29634 h -0.91863 q -2.34103,0 -3.67453,-0.91864 -1.00754,-0.68156 -1.83727,-1.6891 -0.1778,-0.23706 -1.5113,-2.07433 -1.30387,-1.8669 -1.39277,-1.98543 -1.6002,-1.98544 -2.99296,-1.98544 v -0.29633 q 3.4671,0 4.1783,-0.3556 0.9779,-0.50377 1.3335,-1.0668 0.74083,-1.18533 0.74083,-2.60773 0,-1.80764 -1.0668,-2.78554 -1.0668,-0.9779 -2.87443,-1.0668 -0.8001,-0.0296 -1.83727,-0.0296 z"
           inkscape:connector-curvature="0" />
        <path
           id="path987"
           style="font-size:29.63333321px;fill:url(#linearGradient1990);fill-opacity:1.0;stroke:none;stroke-width:1;stroke-miterlimit:4;stroke-dasharray:none;stroke-opacity:1"
           d="m 155.79521,286.61988 q -4.5339,-0.0296 -7.17126,-2.51883 -2.60774,-2.4892 -2.60774,-6.78603 0,-4.32647 2.60774,-6.81567 2.63736,-2.4892 7.17126,-2.4892 1.83727,0 3.70417,0.47413 1.8669,0.47414 3.23003,1.30387 l 0.65194,4.20793 h -0.2667 q -1.27424,-5.09693 -7.34907,-5.09693 -3.52637,0 -5.57107,2.25213 -2.0447,2.25214 -2.0447,6.16374 0,2.54846 0.91864,4.445 0.91863,1.8669 2.667,2.90406 1.74836,1.03717 4.05976,1.03717 2.3114,0 4.03014,-0.68157 1.74836,-0.7112 2.87443,-2.3114 1.1557,-1.6002 1.30387,-3.97086 h 0.2667 l -0.32597,4.05976 q -1.1557,1.778 -3.34857,2.81517 -2.19286,1.00753 -4.8006,1.00753 z"
           inkscape:connector-curvature="0" />
        <path
           id="path989"
           style="font-size:29.63333321px;fill:url(#linearGradient1990);fill-opacity:1.0;stroke:none;stroke-width:1;stroke-miterlimit:4;stroke-dasharray:none;stroke-opacity:1"
           d="m 180.24503,285.90868 q 0.68156,0 1.18533,-0.4445 0.50377,-0.47413 0.5334,-1.12606 v -6.46007 h -10.9347 v 6.46007 q 0.0296,0.65193 0.5334,1.12606 0.50377,0.4445 1.18533,0.4445 h 0.3556 v 0.29634 h -6.0452 v -0.29634 h 0.3556 q 0.7112,0 1.18534,-0.47413 0.50376,-0.47413 0.5334,-1.12607 v -13.98693 q -0.0296,-0.65193 -0.5334,-1.12607 -0.50377,-0.47413 -1.18534,-0.47413 h -0.3556 v -0.29633 h 6.0452 v 0.29633 h -0.3556 q -0.68156,0 -1.18533,0.47413 -0.50377,0.4445 -0.5334,1.09644 v 6.69713 h 10.9347 v -6.6675 q 0,-0.65193 -0.38523,-1.00753 -0.6223,-0.59267 -1.3335,-0.59267 h -0.3556 v -0.29633 h 6.0452 v 0.29633 h -0.3556 q -0.68157,0 -1.18534,0.4445 -0.50376,0.4445 -0.5334,1.09643 v 14.07584 q 0.0296,0.65193 0.38524,0.9779 0.65193,0.59266 1.3335,0.59266 h 0.3556 v 0.29634 h -6.0452 v -0.29634 z"
           inkscape:connector-curvature="0" />
      </g>
      <path
         id="path993"
         d="m 72.633865,257.5015 h 1.889881 v 36.66368 h -1.889881 z"
         style="fill:url(#linearGradient1990);fill-opacity:1.0;stroke:none;stroke-width:1;stroke-miterlimit:4;stroke-dasharray:none;stroke-opacity:1"
         inkscape:connector-curvature="0" />
    </g>
  </g>
</svg>
